#                     N   MinRadius[rings]  MaxRadius[cm]  SeedTreshold[keV]  ClusterTreshold[keV]   NCellsThreshold  Seed/Total Th   Weight1   Weight2   Rejection   Rejection2   Calib.Const1    Calib.Const2    Calib.Const3    Calib.Const4    Calib.Const5
#                                
  PARAMETERS_SEGMENT_N0                  1              5                  0                  5000               2.0            0.0    0.9000       0.5        10.0            0      9.375e-05       8.532e+03       1.000e+00       3.898e-01               0
  PARAMETERS_SEGMENT_N1                  2              4                  0                     7               3.0            0.0    0.1400       0.5         3.5            0      1.605e-02       3.968e+02       1.352e+00      -5.142e+01               0
  PARAMETERS_SEGMENT_N2                  1              5                  0                 10000               3.0            0.0    0.8000       0.5        10.0            0              0               0               0               0               0
  PARAMETERS_SEGMENT_N3                  2              4                  0                    10                10            0.0    0.1800       0.5         3.5            0              0               0               0               0               0
  PARAMETERS_SEGMENT_N4                  1              5                  0                 15000                 6            0.0    1.7000       0.5        10.0            0              0               0               0               0               0
  PARAMETERS_SEGMENT_N5                  1              5                  0                  8500               5.0            0.0    2.8500       0.5        10.0            0              0               0               0               0               0
#EOF
